FIFO/FIFO.sim/sim_1/behav/xsim/simulate.log
Vivado Simulator 2020.2
Time resolution is 1 ps
time: 0 | reset : 1  data_in :  x  r_in : x  w_in : x  d_out :  x  full : x  empty : x
time: 10000 | reset : 0  data_in :  x  r_in : x  w_in : x  d_out :  0  full : 0  empty : 1
time: 20000 | reset : 1  data_in :  5  r_in : x  w_in : 1  d_out :  0  full : 0  empty : 1
time: 25000 | reset : 1  data_in :  5  r_in : x  w_in : 1  d_out :  0  full : 0  empty : 0
time: 30000 | reset : 1  data_in :  7  r_in : x  w_in : 1  d_out :  0  full : 0  empty : 0
time: 40000 | reset : 1  data_in :  0  r_in : x  w_in : 1  d_out :  0  full : 0  empty : 0
time: 50000 | reset : 1  data_in :  2  r_in : x  w_in : 1  d_out :  0  full : 0  empty : 0
time: 60000 | reset : 1  data_in :  3  r_in : x  w_in : 1  d_out :  0  full : 0  empty : 0
time: 70000 | reset : 1  data_in :  3  r_in : x  w_in : 0  d_out :  0  full : 0  empty : 0
time: 100000 | reset : 1  data_in :  3  r_in : 1  w_in : 0  d_out :  0  full : 0  empty : 0
time: 105000 | reset : 1  data_in :  3  r_in : 1  w_in : 0  d_out :  5  full : 0  empty : 0
time: 115000 | reset : 1  data_in :  3  r_in : 1  w_in : 0  d_out :  7  full : 0  empty : 0
time: 125000 | reset : 1  data_in :  3  r_in : 1  w_in : 0  d_out :  0  full : 0  empty : 0
time: 130000 | reset : 1  data_in :  3  r_in : 0  w_in : 0  d_out :  0  full : 0  empty : 0
time: 150000 | reset : 1  data_in :  0  r_in : 0  w_in : 1  d_out :  0  full : 0  empty : 0
time: 160000 | reset : 1  data_in :  1  r_in : 0  w_in : 1  d_out :  0  full : 0  empty : 0
time: 170000 | reset : 1  data_in :  2  r_in : 0  w_in : 1  d_out :  0  full : 0  empty : 0
time: 180000 | reset : 1  data_in :  3  r_in : 0  w_in : 1  d_out :  0  full : 0  empty : 0
time: 190000 | reset : 1  data_in :  4  r_in : 0  w_in : 1  d_out :  0  full : 0  empty : 0
time: 200000 | reset : 1  data_in :  5  r_in : 0  w_in : 1  d_out :  0  full : 0  empty : 0
time: 205000 | reset : 1  data_in :  5  r_in : 0  w_in : 1  d_out :  0  full : 1  empty : 0
time: 210000 | reset : 1  data_in :  6  r_in : 0  w_in : 1  d_out :  0  full : 1  empty : 0
time: 220000 | reset : 1  data_in :  7  r_in : 0  w_in : 1  d_out :  0  full : 1  empty : 0
time: 230000 | reset : 1  data_in :  3  r_in : 0  w_in : 1  d_out :  0  full : 1  empty : 0
time: 240000 | reset : 1  data_in :  2  r_in : 0  w_in : 1  d_out :  0  full : 1  empty : 0
time: 250000 | reset : 1  data_in :  2  r_in : 0  w_in : 0  d_out :  0  full : 1  empty : 0
time: 280000 | reset : 1  data_in :  2  r_in : 1  w_in : 0  d_out :  0  full : 1  empty : 0
time: 285000 | reset : 1  data_in :  2  r_in : 1  w_in : 0  d_out :  2  full : 0  empty : 0
time: 295000 | reset : 1  data_in :  2  r_in : 1  w_in : 0  d_out :  3  full : 0  empty : 0
time: 305000 | reset : 1  data_in :  2  r_in : 1  w_in : 0  d_out :  0  full : 0  empty : 0
time: 315000 | reset : 1  data_in :  2  r_in : 1  w_in : 0  d_out :  1  full : 0  empty : 0
time: 325000 | reset : 1  data_in :  2  r_in : 1  w_in : 0  d_out :  2  full : 0  empty : 0
time: 335000 | reset : 1  data_in :  2  r_in : 1  w_in : 0  d_out :  3  full : 0  empty : 0
time: 345000 | reset : 1  data_in :  2  r_in : 1  w_in : 0  d_out :  4  full : 0  empty : 0
time: 355000 | reset : 1  data_in :  2  r_in : 1  w_in : 0  d_out :  5  full : 0  empty : 1
time: 400000 | reset : 1  data_in :  2  r_in : 0  w_in : 0  d_out :  5  full : 0  empty : 1
time: 420000 | reset : 1  data_in :  0  r_in : 0  w_in : 1  d_out :  5  full : 0  empty : 1
time: 425000 | reset : 1  data_in :  0  r_in : 0  w_in : 1  d_out :  5  full : 0  empty : 0
time: 430000 | reset : 1  data_in :  1  r_in : 0  w_in : 1  d_out :  5  full : 0  empty : 0
time: 440000 | reset : 1  data_in :  2  r_in : 1  w_in : 1  d_out :  5  full : 0  empty : 0
time: 445000 | reset : 1  data_in :  2  r_in : 1  w_in : 1  d_out :  0  full : 0  empty : 0
time: 450000 | reset : 1  data_in :  3  r_in : 0  w_in : 1  d_out :  0  full : 0  empty : 0
time: 460000 | reset : 1  data_in :  4  r_in : 0  w_in : 1  d_out :  0  full : 0  empty : 0
time: 470000 | reset : 1  data_in :  5  r_in : 0  w_in : 1  d_out :  0  full : 0  empty : 0
time: 480000 