FIFO/FIFO.sim/sim_1/behav/xsim/simulate.log
Vivado Simulator 2020.2
Time resolution is 1 ps
                   0 wr_en=0 rd_en=0 din=  0 dout=  x full=0 empty=1
                  35 wr_en=1 rd_en=0 din=  0 dout=  x full=0 empty=1
                  45 wr_en=0 rd_en=0 din=  0 dout=  x full=0 empty=1
                  55 wr_en=1 rd_en=0 din=  1 dout=  x full=0 empty=1
                  56 wr_en=1 rd_en=0 din=  1 dout=  x full=0 empty=0
                  65 wr_en=0 rd_en=0 din=  1 dout=  x full=0 empty=0
                  75 wr_en=1 rd_en=0 din=  2 dout=  x full=0 empty=0
                  85 wr_en=0 rd_en=0 din=  2 dout=  x full=0 empty=0
                  95 wr_en=1 rd_en=0 din=  3 dout=  x full=0 empty=0
                 105 wr_en=0 rd_en=0 din=  3 dout=  x full=0 empty=0
                 115 wr_en=1 rd_en=0 din=  4 dout=  x full=0 empty=0
                 125 wr_en=0 rd_en=0 din=  4 dout=  x full=0 empty=0
                 135 wr_en=1 rd_en=0 din=  5 dout=  x full=0 empty=0
                 145 wr_en=0 rd_en=0 din=  5 dout=  x full=0 empty=0
                 155 wr_en=1 rd_en=0 din=  6 dout=  x full=0 empty=0
                 165 wr_en=0 rd_en=0 din=  6 dout=  x full=0 empty=0
                 175 wr_en=1 rd_en=0 din=  7 dout=  x full=0 empty=0
                 185 wr_en=0 rd_en=0 din=  7 dout=  x full=0 empty=0
                 195 wr_en=1 rd_en=0 din=  8 dout=  x full=0 empty=0
                 205 wr_en=0 rd_en=0 din=  8 dout=  x full=0 empty=0
                 215 wr_en=1 rd_en=0 din=  9 dout=  x full=0 empty=0
                 225 wr_en=0 rd_en=0 din=  9 dout=  x full=0 empty=0
                 296 wr_en=0 rd_en=1 din=  9 dout=  x full=0 empty=0
                 312 wr_en=0 rd_en=0 din=  9 dout=  0 full=0 empty=0
                 328 wr_en=0 rd_en=1 din=  9 dout=  0 full=0 empty=0
                 344 wr_en=0 rd_en=0 din=  9 dout=  1 full=0 empty=0
                 360 wr_en=0 rd_en=1 din=  9 dout=  1 full=0 empty=0
                 376 wr_en=0 rd_en=0 din=  9 dout=  2 full=0 empty=0
                 392 wr_en=0 rd_en=1 din=  9 dout=  2 full=0 empty=0
                 408 wr_en=0 rd_en=0 din=  9 dout=  3 full=0 empty=0
                 424 wr_en=0 rd_en=1 din=  9 dout=  3 full=0 empty=0
                 440 wr_en=0 rd_en=0 din=  9 dout=  4 full=0 empty=0
                 456 wr_en=0 rd_en=1 din=  9 dout=  4 full=0 empty=0
                 472 wr_en=0 rd_en=0 din=  9 dout=  5 full=0 empty=0
                 488 wr_en=0 rd_en=1 din=  9 dout=  5 full=0 empty=0
                 504 wr_en=0 rd_en=0 din=  9 dout=  6 full=0 empty=0
                 520 wr_en=0 rd_en=1 din=  9 dout=  6 full=0 empty=0
                 536 wr_en=0 rd_en=0 din=  9 dout=  7 full=0 empty=0
                 552 wr_en=0 rd_en=1 din=  9 dout=  7 full=0 empty=0
                 568 wr_en=0 rd_en=0 din=  9 dout=  8 full=0 empty=0
